[
    {
        "title": "Free Adventure - Wretched Chains - Part Three",
        "thumbnail": "/media/wretched-chains-three-thumb.webp",
        "banner": "/media/wretched-chains-three.webp",
        "excerpt": "Rivalries are settled in the third part of the one-shot as the parties actions coalesce into weakening the Chain Devil and re-igniting hope for the survival of the town. It's time to head into the beast's lair as it is finally safe to besiege the Chain Devil. Beware, Catrazo comes with more tricks up his sleeve than the average Chain Devil thanks to the Puzzle Box!",
        "date": "Feb 14, 2022",
        "writer": "Ilja Belankins",
        "url": "dnd-free-adventure/wretched-chains-three",
        "meta_image": "/media/wretched-chains-three-meta.jpeg"
    },
    {
        "title": "Free Adventure - Wretched Chains - Part Two",
        "thumbnail": "/media/wretched-chains-two-thumb.webp",
        "banner": "/media/wretched-chains-two.webp",
        "excerpt": "As the pressure from the Chain Devil mounts, the Town of Silver Wood draws itself into conflict. In the second part of the one-shot, explore and discover the severity of disorganization and despondence inside of the Citadel. Explore how the unique ineptitude of the town's leaders, cowardly Captain Hellman and the droll Sergeant Borus, has led Silver Wood into a position of stagnation in the face of the Chain Devil's assault.",
        "date": "Feb 7, 2022",
        "writer": "Ilja Belankins",
        "url": "dnd-free-adventure/wretched-chains-two",
        "meta_image": "/media/wretched-chains-two-meta.jpeg"
    },
    {
        "title": "Free Adventure - Wretched Chains - Part One",
        "thumbnail": "/media/wretched-chains-one-thumb.webp",
        "banner": "/media/wretched-chains-one.webp",
        "excerpt": "A horror level 3-4 one-shot which takes a relatively simple monster from the Monster Manual and gives it depth and atmosphere. The Chain Devil is transformed into a villain with personality as the party steps into a peaceful town transformed into the Devil's plaything. Embark on your first steps into Catrazo's dark world of suffering and horror...",
        "date": "Jan 31, 2022",
        "writer": "Ilja Belankins",
        "url": "dnd-free-adventure/wretched-chains-one",
        "meta_image": "/media/wretched-chains-one-meta.jpeg"
    }
]